%YAML 1.1
%TAG !u! tag:unity3d.com,2011:
--- !u!21 &2100000
Material:
  serializedVersion: 6
  m_ObjectHideFlags: 0
  m_PrefabParentObject: {fileID: 0}
  m_PrefabInternal: {fileID: 0}
  m_Name: Rusty caps pattern
  m_Shader: {fileID: 4, guid: 0000000000000000f000000000000000, type: 0}
  m_ShaderKeywords: 
  m_LightmapFlags: 4
  m_EnableInstancingVariants: 0
  m_DoubleSidedGI: 0
  m_CustomRenderQueue: -1
  stringTagMap: {}
  disabledShaderPasses: []
  m_SavedProperties:
    serializedVersion: 3
    m_TexEnvs:
    - _BumpMap:
        m_Texture: {fileID: 2800000, guid: c9a0b6c98ce37da4f8af20abc689dc3a, type: 3}
        m_Scale: {x: 3, y: 3}
        m_Offset: {x: 0, y: 0}
    - _MainTex:
        m_Texture: {fileID: 2800000, guid: 36d8bc21a8e09904ba0b1fe948cb259f, type: 3}
        m_Scale: {x: 3, y: 3}
        m_Offset: {x: 0, y: 0}
    m_Floats:
    - _Shininess: 0.21697056
    m_Colors:
    - _Color: {r: 1, g: 1, b: 1, a: 1}
    - _SpecColor: {r: 1, g: 1, b: 1, a: 1}
